<?xml version="1.0" encoding="UTF-8" standalone="no"?>
<!-- Created with Inkscape (http://www.inkscape.org/) -->

<svg
   width="2048"
   height="2048"
   viewBox="0 0 541.86667 541.86664"
   version="1.1"
   id="svg5"
   inkscape:version="1.2.2 (b0a8486541, 2022-12-01)"
   sodipodi:docname="generic_coverart.svg"
   xmlns:inkscape="http://www.inkscape.org/namespaces/inkscape"
   xmlns:sodipodi="http://sodipodi.sourceforge.net/DTD/sodipodi-0.dtd"
   xmlns="http://www.w3.org/2000/svg"
   xmlns:svg="http://www.w3.org/2000/svg">
  <sodipodi:namedview
     id="namedview7"
     pagecolor="#ffffff"
     bordercolor="#666666"
     borderopacity="1.0"
     inkscape:showpageshadow="2"
     inkscape:pageopacity="0.0"
     inkscape:pagecheckerboard="0"
     inkscape:deskcolor="#d1d1d1"
     inkscape:document-units="mm"
     showgrid="false"
     inkscape:zoom="0.31317656"
     inkscape:cx="1582.1746"
     inkscape:cy="817.43027"
     inkscape:window-width="2560"
     inkscape:window-height="1403"
     inkscape:window-x="0"
     inkscape:window-y="0"
     inkscape:window-maximized="1"
     inkscape:current-layer="layer1" />
  <defs
     id="defs2" />
  <g
     inkscape:label="Layer 1"
     inkscape:groupmode="layer"
     id="layer1"
     transform="translate(-88.821857,-124.52474)">
    <path
       d="m 372.98429,210.24607 c -43.5115,0 -79.375,35.86399 -79.375,79.37501 v 114.92899 c -12.09222,-5.79 -25.52809,-9.10001 -39.68749,-9.10001 -50.84963,0 -92.60411,41.75401 -92.60411,92.60402 0,50.84899 41.75448,92.604 92.60411,92.604 50.64289,0 92.39749,-41.54801 92.60419,-92.088 0,-0.20001 0,-0.3 0,-0.50001 V 289.63308 c 0,-14.883 11.5755,-26.45801 26.4583,-26.45801 h 105.8334 c 14.8828,0 26.4583,11.57501 26.4583,26.45801 v 114.92798 c -12.0923,-5.79 -25.5282,-9.09999 -39.6875,-9.09999 -50.8496,0 -92.6042,41.755 -92.6042,92.60501 0,50.84899 41.7546,92.604 92.6042,92.604 50.8496,0 92.6042,-41.75501 92.6042,-92.604 V 289.62806 c 0,-43.51099 -35.8635,-79.37498 -79.375,-79.37498 z m -119.06249,238.125 c 22.22089,0 39.68749,17.467 39.68749,39.688 v 0.40001 c -0.21,22.014 -17.56992,39.27399 -39.68749,39.27399 -22.22081,0 -39.68753,-17.46699 -39.68753,-39.68799 0,-22.221 17.46672,-39.68701 39.68753,-39.68701 z m 211.66669,0 c 22.2209,0 39.6875,17.467 39.6875,39.688 0,22.221 -17.4666,39.687 -39.6875,39.687 -22.2209,0 -39.6875,-17.466 -39.6875,-39.687 0,-22.221 17.4666,-39.688 39.6875,-39.688 z m 0,0"
       fill="#2e3436"
       id="path132"
       style="stroke-width:26.4582;fill:#9a9996;fill-opacity:1.0" />
  </g>
</svg>
